GEO880: Patterns and Trends in Environmental Data
…
Input: Geometry as columns

Last week, we transformed our data from a data.frame to an sf object. This turned our Lat/Long Columns into a single geometry (list) column. While this is very handy for many spatial operations, accessing the coordinates directly becomes difficult. We therefore suggest storing the information twice, once as a geometry and once as a numeric value. We did this for the values in WGS84, but not yet for CH1903+ LV95.

wildschwein_BE
## Simple feature collection with 141763 features and 8 fields
## geometry type:  POINT
## dimension:      XY
## bbox:           xmin: 2568153 ymin: 1201483 xmax: 2577023 ymax: 1207609
## epsg (SRID):    2056
## proj4string:    +proj=somerc +lat_0=46.95240555555556 +lon_0=7.439583333333333 +k_0=1 +x_0=2600000 +y_0=1200000 +ellps=bessel +towgs84=674.374,15.056,405.346,0,0,0,0 +units=m +no_defs
## # A tibble: 141,763 x 9
## # Groups:   TierID [10]
##    TierID TierName CollarID DatetimeUTC           Lat  Long timelag
##    <chr>  <chr>       <int> <dttm>              <dbl> <dbl>   <dbl>
##  1 001A   Ueli        12272 2014-05-28 21:01:14  47.0  7.05    844.
##  2 001A   Ueli        12272 2014-05-28 21:15:18  47.0  7.05    895.
##  3 001A   Ueli        12272 2014-05-28 21:30:13  47.0  7.05    898.
##  4 001A   Ueli        12272 2014-05-28 21:45:11  47.0  7.05    922.
##  5 001A   Ueli        12272 2014-05-28 22:00:33  47.0  7.05    883.
##  6 001A   Ueli        12272 2014-05-28 22:15:16  47.0  7.05    898.
##  7 001A   Ueli        12272 2014-05-28 22:30:14  47.0  7.05    895.
##  8 001A   Ueli        12272 2014-05-28 22:45:09  47.0  7.05    903.
##  9 001A   Ueli        12272 2014-05-28 23:00:12  47.0  7.05    896.
## 10 001A   Ueli        12272 2014-05-28 23:15:08  47.0  7.05    908.
## # ... with 141,753 more rows, and 2 more variables: samplingInt <fct>,
## #   geometry <POINT [m]>
…
