GEO880: Patterns and Trends in Environmental Data
…
are being rapidly implemented in visualisation tools such as ggplot2, plotly and tmap

We will largely rely on sfwhen working with vector data in R. In order to transform our data.frame into an sf object, we need to use the function st_as_sf() while specifying the columns storing the coordinates and the coordinate reference system3.

library(sf)

wildschwein_BE_sf <- st_as_sf(wildschwein_BE, coords = c("Long", "Lat"), crs = 4326)

Notice how st_as_sf takes the EPSG code for the crs = argument. This is so much easier and more elegant than using PROJ.4 or WKT. You can find a lot of useful information on Coordinate Reference Systems (including EPSG Codes , etc.) under spatialreference.org or http://epsg.io.

Let’s compare our original data.frame with this new sf object:

wildschwein_BE

## # A tibble: 141,763 x 6
##    TierID TierName CollarID DatetimeUTC           Lat  Long
##    <chr>  <chr>       <int> <dttm>              <dbl> <dbl>
##  1 001A   Ueli        12272 2014-05-28 21:01:14  47.0  7.05
##  2 001A   Ueli        12272 2014-05-28 21:15:18  47.0  7.05
##  3 001A   Ueli        12272 2014-05-28 21:30:13  47.0  7.05
##  4 001A   Ueli        12272 2014-05-28 21:45:11  47.0  7.05
##  5 001A   Ueli        12272 2014-05-28 22:00:33  47.0  7.05
##  6 001A   Ueli        12272 2014-05-28 22:15:16  47.0  7.05
##  7 001A   Ueli        12272 2014-05-28 22:30:14  47.0  7.05
##  8 001A   Ueli        12272 2014-05-28 22:45:09  47.0  7.05
##  9 001A   Ueli        12272 2014-05-28 23:00:12  47.0  7.05
## 10 001A   Ueli        12272 2014-05-28 23:15:08  47.0  7.05
## # ... with 141,753 more rows

wildschwein_BE_sf

## Simple feature collection with 141763 features and 4 fields
## geometry type:  POINT
## dimension:      XY
## bbox:           xmin: 7.019889 ymin: 46.96389 xmax: 7.136615 ymax: 47.01882
## epsg (SRID):    4326
## proj4string:    +proj=longlat +datum=WGS84 +no_defs
## # A tibble: 141,763 x 5
##    TierID TierName CollarID DatetimeUTC                    geometry
##    <chr>  <chr>       <int> <dttm>                      <POINT [°]>
##  1 001A   Ueli        12272 2014-05-28 21:01:14 (7.049359 46.99378)
##  2 001A   Ueli        12272 2014-05-28 21:15:18 (7.049342 46.99383)
##  3 001A   Ueli        12272 2014-05-28 21:30:13 (7.049367 46.99379)
##  4 001A   Ueli        12272 2014-05-28 21:45:11 (7.049329 46.99383)
##  5 001A   Ueli        12272 2014-05-28 22:00:33 (7.049336 46.99376)
##  6 001A   Ueli        12272 2014-05-28 22:15:16 (7.049282 46.99385)
##  7 001A   Ueli        12272 2014-05-28 22:30:14 (7.049401 46.99381)
##  8 001A   Ueli        12272 2014-05-28 22:45:09  (7.051912 46.9958)
##  9 001A   Ueli        12272 2014-05-28 23:00:12  (7.051797 46.9958)
## 10 001A   Ueli        12272 2014-05-28 23:15:08 (7.051658 46.99582)
## # ... with 141,753 more rows
…
# subset colums
wildschwein_BE_sf[,2:3]

Instead of keeping the same data twice (once as a data.frame, and once as an sf object), we will overwrite the data.frame and continue working with the sf object from now on. This saves some memory space in R and avoids confusion. It is however, unideal that the st_as_sf() operation replaced the Lat and Long columns with the geometry column. It would be helpful to retain the Lat/Long columns and have the geometry column in addition. We can enforce this by using the argument remove = FALSE.

wildschwein_BE = st_as_sf(wildschwein_BE, coords = c("Long", "Lat"), crs = 4326,remove = FALSE)

wildschwein_BE # note how the Lat/Long information is stored twice
## Simple feature collection with 141763 features and 6 fields
## geometry type:  POINT
## dimension:      XY
## bbox:           xmin: 7.019889 ymin: 46.96389 xmax: 7.136615 ymax: 47.01882
## epsg (SRID):    4326
## proj4string:    +proj=longlat +datum=WGS84 +no_defs
## # A tibble: 141,763 x 7
##    TierID TierName CollarID DatetimeUTC           Lat  Long
##    <chr>  <chr>       <int> <dttm>              <dbl> <dbl>
##  1 001A   Ueli        12272 2014-05-28 21:01:14  47.0  7.05
##  2 001A   Ueli        12272 2014-05-28 21:15:18  47.0  7.05
##  3 001A   Ueli        12272 2014-05-28 21:30:13  47.0  7.05
##  4 001A   Ueli        12272 2014-05-28 21:45:11  47.0  7.05
##  5 001A   Ueli        12272 2014-05-28 22:00:33  47.0  7.05
##  6 001A   Ueli        12272 2014-05-28 22:15:16  47.0  7.05
##  7 001A   Ueli        12272 2014-05-28 22:30:14  47.0  7.05
##  8 001A   Ueli        12272 2014-05-28 22:45:09  47.0  7.05
##  9 001A   Ueli        12272 2014-05-28 23:00:12  47.0  7.05
## 10 001A   Ueli        12272 2014-05-28 23:15:08  47.0  7.05
## # ... with 141,753 more rows, and 1 more variable: geometry <POINT [°]>
rm(wildschwein_BE_sf) # we can remove this sf object, since it just eats up our memory

Task 4: Project data from WGS84

So what can we do with our new sf object that we couldn’t before? One example is projecting the WGS84 (Lat/Long) coordinates into the new Swiss CRS CH1903+ LV954. Do this by using the function st_transform. By the way, do you notice a pattern here? The package sf names most functions for spatial operations with the prefix st_*.

Here’s the resulting sf object from the operation:

## Simple feature collection with 141763 features and 6 fields
## geometry type:  POINT
## dimension:      XY
## bbox:           xmin: 2568153 ymin: 1201483 xmax: 2577023 ymax: 1207609
## epsg (SRID):    2056
## proj4string:    +proj=somerc +lat_0=46.95240555555556 +lon_0=7.439583333333333 +k_0=1 +x_0=2600000 +y_0=1200000 +ellps=bessel +towgs84=674.374,15.056,405.346,0,0,0,0 +units=m +no_defs
## # A tibble: 141,763 x 7
##    TierID TierName CollarID DatetimeUTC           Lat  Long
##    <chr>  <chr>       <int> <dttm>              <dbl> <dbl>
##  1 001A   Ueli        12272 2014-05-28 21:01:14  47.0  7.05
##  2 001A   Ueli        12272 2014-05-28 21:15:18  47.0  7.05
##  3 001A   Ueli        12272 2014-05-28 21:30:13  47.0  7.05
##  4 001A   Ueli        12272 2014-05-28 21:45:11  47.0  7.05
##  5 001A   Ueli        12272 2014-05-28 22:00:33  47.0  7.05
##  6 001A   Ueli        12272 2014-05-28 22:15:16  47.0  7.05
##  7 001A   Ueli        12272 2014-05-28 22:30:14  47.0  7.05
##  8 001A   Ueli        12272 2014-05-28 22:45:09  47.0  7.05
##  9 001A   Ueli        12272 2014-05-28 23:00:12  47.0  7.05
## 10 001A   Ueli        12272 2014-05-28 23:15:08  47.0  7.05
## # ... with 141,753 more rows, and 1 more variable: geometry <POINT [m]>
…
If you know summarise() and mutate() operations from dplyr; sf understands this language which facilitates handling spatial data

wildschwein_BE <- group_by(wildschwein_BE,TierID)

You can see the grouping variable in the metadata of our sf object:

wildschwein_BE
## Simple feature collection with 141763 features and 6 fields
## geometry type:  POINT
## dimension:      XY
## bbox:           xmin: 2568153 ymin: 1201483 xmax: 2577023 ymax: 1207609
## epsg (SRID):    2056
## proj4string:    +proj=somerc +lat_0=46.95240555555556 +lon_0=7.439583333333333 +k_0=1 +x_0=2600000 +y_0=1200000 +ellps=bessel +towgs84=674.374,15.056,405.346,0,0,0,0 +units=m +no_defs
## # A tibble: 141,763 x 7
## # Groups:   TierID [10]
##    TierID TierName CollarID DatetimeUTC           Lat  Long
##    <chr>  <chr>       <int> <dttm>              <dbl> <dbl>
##  1 001A   Ueli        12272 2014-05-28 21:01:14  47.0  7.05
##  2 001A   Ueli        12272 2014-05-28 21:15:18  47.0  7.05
##  3 001A   Ueli        12272 2014-05-28 21:30:13  47.0  7.05
##  4 001A   Ueli        12272 2014-05-28 21:45:11  47.0  7.05
##  5 001A   Ueli        12272 2014-05-28 22:00:33  47.0  7.05
##  6 001A   Ueli        12272 2014-05-28 22:15:16  47.0  7.05
##  7 001A   Ueli        12272 2014-05-28 22:30:14  47.0  7.05
##  8 001A   Ueli        12272 2014-05-28 22:45:09  47.0  7.05
##  9 001A   Ueli        12272 2014-05-28 23:00:12  47.0  7.05
## 10 001A   Ueli        12272 2014-05-28 23:15:08  47.0  7.05
## # ... with 141,753 more rows, and 1 more variable: geometry <POINT [m]>
…
