GEO880: Patterns and Trends in Environmental Data
…
## Simple feature collection with 99 features and 6 fields
## geometry type:  POINT
## dimension:      XY
## bbox:           xmin: 2568493 ymin: 1203920 xmax: 2570770 ymax: 1205937
## epsg (SRID):    2056
## proj4string:    +proj=somerc +lat_0=46.95240555555556 +lon_0=7.439583333333333 +k_0=1 +x_0=2600000 +y_0=1200000 +ellps=bessel +towgs84=674.374,15.056,405.346,0,0,0,0 +units=m +no_defs
## # A tibble: 99 x 7
## # Groups:   TierID [1]
##    TierID DatetimeUTC                E        N stepMean movement
##    <chr>  <dttm>                 <dbl>    <dbl>    <dbl> <lgl>   
##  1 010C   2015-09-15 08:08:00 2570573. 1205096.    NA    NA      
##  2 010C   2015-09-15 08:09:00 2570536. 1205099.    NA    NA      
##  3 010C   2015-09-15 08:10:00 2570518. 1205115.    35.1  TRUE    
##  4 010C   2015-09-15 08:11:00 2570499. 1205130.    25.4  TRUE    
##  5 010C   2015-09-15 08:12:00 2570489. 1205130.    18.8  TRUE    
##  6 010C   2015-09-15 08:13:00 2570482. 1205124.    16.9  TRUE    
##  7 010C   2015-09-15 08:14:00 2570481. 1205108.    15.4  TRUE    
##  8 010C   2015-09-15 08:15:00 2570486. 1205099.    12.9  TRUE    
##  9 010C   2015-09-15 08:16:00 2570490. 1205100.    10.3  TRUE    
## 10 010C   2015-09-15 08:17:00 2570495. 1205091.     7.24 TRUE    
## # ... with 89 more rows, and 1 more variable: geometry <POINT [m]>
…
