Exercise 4 | Patterns and Trends in Environmental Data
…
Figure 9: After resampling, the movement data is slightly manipulated (this visualization is not part of the task) since we changed the original timestamp. We are usually off from the ‘true’ value around 10 to 15 seconds, some are off by as much as 2 minutes.

Task 4: Measuring distance at concurrent locations

To measure the distance between concurrent locations, we need to follow the following steps.

First, split the wildschwein_filter object into one data.frame per animal.3

Next, join these datasets by the new, manipulated Datetime column and save it to the variable wildschwein_join. Which join-type is appropriate? The joined observations are temporally close.

On wildschwein_join, calculate Euclidean distances between concurrent observations. Store the values in a new column distance.

Use a reasonable threshold on distance to determine if the animals are also spatially close enough to constitute a meet (we use 50 meters). Store this Boolean information (TRUE/FALSE) in a new column named meet.

## # A tibble: 1,344 x 9
##    TierID.x DatetimeRound          E.x    N.x TierID.y    E.y    N.y
##    <chr>    <dttm>               <dbl>  <dbl> <chr>     <dbl>  <dbl>
##  1 002A     2015-03-31 22:00:00 2.57e6 1.21e6 016A     2.57e6 1.20e6
##  2 002A     2015-03-31 22:15:00 2.57e6 1.21e6 016A     2.57e6 1.20e6
##  3 002A     2015-03-31 22:30:00 2.57e6 1.21e6 016A     2.57e6 1.20e6
##  4 002A     2015-03-31 22:45:00 2.57e6 1.21e6 016A     2.57e6 1.20e6
##  5 002A     2015-03-31 23:00:00 2.57e6 1.21e6 016A     2.57e6 1.20e6
##  6 002A     2015-03-31 23:15:00 2.57e6 1.21e6 016A     2.57e6 1.20e6
##  7 002A     2015-03-31 23:30:00 2.57e6 1.21e6 016A     2.57e6 1.20e6
##  8 002A     2015-03-31 23:45:00 2.57e6 1.21e6 016A     2.57e6 1.20e6
##  9 002A     2015-04-01 00:00:00 2.57e6 1.21e6 016A     2.57e6 1.20e6
## 10 002A     2015-04-01 00:15:00 2.57e6 1.21e6 016A     2.57e6 1.20e6
## # ... with 1,334 more rows, and 2 more variables: distance <dbl>,
## #   meet <lgl>
…
