…
Notice how `st_as_sf` takes the EPSG code for the `crs =` argument. You can find a lot of useful information on Coordinate Reference Systems (including EPSG Codes, etc.) under [epsg.io](http://epsg.io).  
Let's compare our original `data.frame` with this new `sf` object:


```r
wildschwein_BE
```

```
## # A tibble: 51,246 x 6
##    TierID TierName CollarID DatetimeUTC           Lat  Long
##    <chr>  <chr>       <dbl> <dttm>              <dbl> <dbl>
##  1 002A   Sabi        12275 2014-08-22 21:00:12  47.0  7.05
##  2 002A   Sabi        12275 2014-08-22 21:15:16  47.0  7.05
##  3 002A   Sabi        12275 2014-08-22 21:30:43  47.0  7.05
##  4 002A   Sabi        12275 2014-08-22 21:46:07  47.0  7.05
##  5 002A   Sabi        12275 2014-08-22 22:00:22  47.0  7.05
##  6 002A   Sabi        12275 2014-08-22 22:15:10  47.0  7.05
##  7 002A   Sabi        12275 2014-08-22 22:30:13  47.0  7.05
##  8 002A   Sabi        12275 2014-08-22 22:45:11  47.0  7.05
##  9 002A   Sabi        12275 2014-08-22 23:00:27  47.0  7.05
## 10 002A   Sabi        12275 2014-08-22 23:15:41  47.0  7.05
## # ... with 51,236 more rows
```

```r
wildschwein_BE_sf
```

```
## Simple feature collection with 51246 features and 4 fields
## Geometry type: POINT
## Dimension:     XY
## Bounding box:  xmin: 7.019889 ymin: 46.97125 xmax: 7.112075 ymax: 47.01882
## Geodetic CRS:  WGS 84
## # A tibble: 51,246 x 5
##    TierID TierName CollarID DatetimeUTC                    geometry
##  * <chr>  <chr>       <dbl> <dttm>                      <POINT [째]>
##  1 002A   Sabi        12275 2014-08-22 21:00:12 (7.049618 46.99317)
##  2 002A   Sabi        12275 2014-08-22 21:15:16 (7.049509 46.99416)
##  3 002A   Sabi        12275 2014-08-22 21:30:43 (7.049406 46.99383)
##  4 002A   Sabi        12275 2014-08-22 21:46:07 (7.049217 46.99375)
##  5 002A   Sabi        12275 2014-08-22 22:00:22 (7.049359 46.99375)
##  6 002A   Sabi        12275 2014-08-22 22:15:10 (7.049363 46.99382)
##  7 002A   Sabi        12275 2014-08-22 22:30:13 (7.049326 46.99387)
##  8 002A   Sabi        12275 2014-08-22 22:45:11 (7.049237 46.99395)
##  9 002A   Sabi        12275 2014-08-22 23:00:27 (7.048383 46.99481)
## 10 002A   Sabi        12275 2014-08-22 23:15:41 (7.049396 46.99373)
## # ... with 51,236 more rows
```
…
```r
wildschwein_BE_sf[wildschwein_BE_sf$TierName == "Sabi",]
```

```
## Simple feature collection with 22746 features and 4 fields
## Geometry type: POINT
## Dimension:     XY
## Bounding box:  xmin: 7.029718 ymin: 46.98947 xmax: 7.059671 ymax: 47.01454
## Geodetic CRS:  WGS 84
## # A tibble: 22,746 x 5
##    TierID TierName CollarID DatetimeUTC                    geometry
##    <chr>  <chr>       <dbl> <dttm>                      <POINT [째]>
##  1 002A   Sabi        12275 2014-08-22 21:00:12 (7.049618 46.99317)
##  2 002A   Sabi        12275 2014-08-22 21:15:16 (7.049509 46.99416)
##  3 002A   Sabi        12275 2014-08-22 21:30:43 (7.049406 46.99383)
##  4 002A   Sabi        12275 2014-08-22 21:46:07 (7.049217 46.99375)
##  5 002A   Sabi        12275 2014-08-22 22:00:22 (7.049359 46.99375)
##  6 002A   Sabi        12275 2014-08-22 22:15:10 (7.049363 46.99382)
##  7 002A   Sabi        12275 2014-08-22 22:30:13 (7.049326 46.99387)
##  8 002A   Sabi        12275 2014-08-22 22:45:11 (7.049237 46.99395)
##  9 002A   Sabi        12275 2014-08-22 23:00:27 (7.048383 46.99481)
## 10 002A   Sabi        12275 2014-08-22 23:15:41 (7.049396 46.99373)
## # ... with 22,736 more rows
```

```r
# subset colums
wildschwein_BE_sf[,2:3]
```

```
## Simple feature collection with 51246 features and 2 fields
## Geometry type: POINT
## Dimension:     XY
## Bounding box:  xmin: 7.019889 ymin: 46.97125 xmax: 7.112075 ymax: 47.01882
## Geodetic CRS:  WGS 84
## # A tibble: 51,246 x 3
##    TierName CollarID            geometry
##    <chr>       <dbl>         <POINT [째]>
##  1 Sabi        12275 (7.049618 46.99317)
##  2 Sabi        12275 (7.049509 46.99416)
##  3 Sabi        12275 (7.049406 46.99383)
##  4 Sabi        12275 (7.049217 46.99375)
##  5 Sabi        12275 (7.049359 46.99375)
##  6 Sabi        12275 (7.049363 46.99382)
##  7 Sabi        12275 (7.049326 46.99387)
##  8 Sabi        12275 (7.049237 46.99395)
##  9 Sabi        12275 (7.048383 46.99481)
## 10 Sabi        12275 (7.049396 46.99373)
## # ... with 51,236 more rows
```
…
Here's the resulting `sf` object from the operation:

```r
wildschwein_BE
```

```
## Simple feature collection with 51246 features and 4 fields
## Geometry type: POINT
## Dimension:     XY
## Bounding box:  xmin: 2568153 ymin: 1202306 xmax: 2575154 ymax: 1207609
## Projected CRS: CH1903+ / LV95
## # A tibble: 51,246 x 5
##    TierID TierName CollarID DatetimeUTC                  geometry
##  * <chr>  <chr>       <dbl> <dttm>                    <POINT [m]>
##  1 002A   Sabi        12275 2014-08-22 21:00:12 (2570409 1204752)
##  2 002A   Sabi        12275 2014-08-22 21:15:16 (2570402 1204863)
##  3 002A   Sabi        12275 2014-08-22 21:30:43 (2570394 1204826)
##  4 002A   Sabi        12275 2014-08-22 21:46:07 (2570379 1204817)
##  5 002A   Sabi        12275 2014-08-22 22:00:22 (2570390 1204818)
##  6 002A   Sabi        12275 2014-08-22 22:15:10 (2570390 1204825)
##  7 002A   Sabi        12275 2014-08-22 22:30:13 (2570387 1204831)
##  8 002A   Sabi        12275 2014-08-22 22:45:11 (2570381 1204840)
##  9 002A   Sabi        12275 2014-08-22 23:00:27 (2570316 1204935)
## 10 002A   Sabi        12275 2014-08-22 23:15:41 (2570393 1204815)
## # ... with 51,236 more rows
```
…
```r
wildschwein_BE_grouped <- group_by(wildschwein_BE,TierID)

wildschwein_BE_grouped
```

```
## Simple feature collection with 51246 features and 4 fields
## Geometry type: POINT
## Dimension:     XY
## Bounding box:  xmin: 2568153 ymin: 1202306 xmax: 2575154 ymax: 1207609
## Projected CRS: CH1903+ / LV95
## # A tibble: 51,246 x 5
## # Groups:   TierID [3]
##    TierID TierName CollarID DatetimeUTC                  geometry
##    <chr>  <chr>       <dbl> <dttm>                    <POINT [m]>
##  1 002A   Sabi        12275 2014-08-22 21:00:12 (2570409 1204752)
##  2 002A   Sabi        12275 2014-08-22 21:15:16 (2570402 1204863)
##  3 002A   Sabi        12275 2014-08-22 21:30:43 (2570394 1204826)
##  4 002A   Sabi        12275 2014-08-22 21:46:07 (2570379 1204817)
##  5 002A   Sabi        12275 2014-08-22 22:00:22 (2570390 1204818)
##  6 002A   Sabi        12275 2014-08-22 22:15:10 (2570390 1204825)
##  7 002A   Sabi        12275 2014-08-22 22:30:13 (2570387 1204831)
##  8 002A   Sabi        12275 2014-08-22 22:45:11 (2570381 1204840)
##  9 002A   Sabi        12275 2014-08-22 23:00:27 (2570316 1204935)
## 10 002A   Sabi        12275 2014-08-22 23:15:41 (2570393 1204815)
## # ... with 51,236 more rows
```
…
