Tasks and inputs | Patterns and Trends in Environmental Data
…
Input: Handling spatial data

Until now, we’ve stored our location data within data frames as Lat/Long columns. This works well for many tasks, but sometimes we need special spatial classes to handle our trajectories. We will get to know such cases in our next tasks, but first we need to convert our data.frame into a spatial object.

We will largely rely on sfwhen working with vector data in R. In order to transform our data.frame into an sf object, we need to use the function st_as_sf() while specifying the columns storing the coordinates and the coordinate reference system.

(At this point, we assume you know what a Coordinate Reference Systems is. Check out this link if this is not the case.)

Notice how st_as_sf takes the EPSG code for the crs = argument. You can find a lot of useful information on Coordinate Reference Systems (including EPSG Codes , etc.) under (epsg.io)[http://epsg.io].

Let’s compare our original data.frame with this new sf object:

wildschwein_BE

## # A tibble: 51,246 x 6
##    TierID TierName CollarID DatetimeUTC           Lat  Long
##    <chr>  <chr>       <dbl> <dttm>              <dbl> <dbl>
##  1 002A   Sabi        12275 2014-08-22 21:00:12  47.0  7.05
##  2 002A   Sabi        12275 2014-08-22 21:15:16  47.0  7.05
##  3 002A   Sabi        12275 2014-08-22 21:30:43  47.0  7.05
##  4 002A   Sabi        12275 2014-08-22 21:46:07  47.0  7.05
##  5 002A   Sabi        12275 2014-08-22 22:00:22  47.0  7.05
##  6 002A   Sabi        12275 2014-08-22 22:15:10  47.0  7.05
##  7 002A   Sabi        12275 2014-08-22 22:30:13  47.0  7.05
##  8 002A   Sabi        12275 2014-08-22 22:45:11  47.0  7.05
##  9 002A   Sabi        12275 2014-08-22 23:00:27  47.0  7.05
## 10 002A   Sabi        12275 2014-08-22 23:15:41  47.0  7.05
## # ... with 51,236 more rows

wildschwein_BE_sf

## Simple feature collection with 51246 features and 4 fields
## geometry type:  POINT
## dimension:      XY
## bbox:           xmin: 7.019889 ymin: 46.97125 xmax: 7.112075 ymax: 47.01882
## geographic CRS: WGS 84
## # A tibble: 51,246 x 5
##    TierID TierName CollarID DatetimeUTC                    geometry
##  * <chr>  <chr>       <dbl> <dttm>                      <POINT [°]>
##  1 002A   Sabi        12275 2014-08-22 21:00:12 (7.049618 46.99317)
##  2 002A   Sabi        12275 2014-08-22 21:15:16 (7.049509 46.99416)
##  3 002A   Sabi        12275 2014-08-22 21:30:43 (7.049406 46.99383)
##  4 002A   Sabi        12275 2014-08-22 21:46:07 (7.049217 46.99375)
##  5 002A   Sabi        12275 2014-08-22 22:00:22 (7.049359 46.99375)
##  6 002A   Sabi        12275 2014-08-22 22:15:10 (7.049363 46.99382)
##  7 002A   Sabi        12275 2014-08-22 22:30:13 (7.049326 46.99387)
##  8 002A   Sabi        12275 2014-08-22 22:45:11 (7.049237 46.99395)
##  9 002A   Sabi        12275 2014-08-22 23:00:27 (7.048383 46.99481)
## 10 002A   Sabi        12275 2014-08-22 23:15:41 (7.049396 46.99373)
## # ... with 51,236 more rows
…
Task 4: Project data from WGS84

So what can we do with our new sf object that we couldn’t before? One example is projecting the WGS84 (Lat/Long) coordinates into the new Swiss CRS CH1903+ LV951. Do this by using the function st_transform. By the way, do you notice a pattern here? The package sf names most functions for spatial operations with the prefix st_*, just as in PostGIS.

Here’s the resulting sf object from the operation:

wildschwein_BE
## Simple feature collection with 51246 features and 4 fields
## geometry type:  POINT
## dimension:      XY
## bbox:           xmin: 2568153 ymin: 1202306 xmax: 2575154 ymax: 1207609
## projected CRS:  CH1903+ / LV95
## # A tibble: 51,246 x 5
##    TierID TierName CollarID DatetimeUTC                  geometry
##  * <chr>  <chr>       <dbl> <dttm>                    <POINT [m]>
##  1 002A   Sabi        12275 2014-08-22 21:00:12 (2570409 1204752)
##  2 002A   Sabi        12275 2014-08-22 21:15:16 (2570402 1204863)
##  3 002A   Sabi        12275 2014-08-22 21:30:43 (2570394 1204826)
##  4 002A   Sabi        12275 2014-08-22 21:46:07 (2570379 1204817)
##  5 002A   Sabi        12275 2014-08-22 22:00:22 (2570390 1204818)
##  6 002A   Sabi        12275 2014-08-22 22:15:10 (2570390 1204825)
##  7 002A   Sabi        12275 2014-08-22 22:30:13 (2570387 1204831)
##  8 002A   Sabi        12275 2014-08-22 22:45:11 (2570381 1204840)
##  9 002A   Sabi        12275 2014-08-22 23:00:27 (2570316 1204935)
## 10 002A   Sabi        12275 2014-08-22 23:15:41 (2570393 1204815)
## # ... with 51,236 more rows
…
Transforming from one Coordinate Reference System to another was one operation where we needed an object with a spatial nature. In this way, we were able to use an off the shelf function to project the coordinates from one CRS to another. In our next example, we again rely on a spatial function: We want to calculate a convex hull per Wild boar. And guess what the function for calculating a convex hull is called in sf? If you guessed st_convex_hull(), you were right!

By default st_convex_hull() calculates the convex hull per feature, i.e. per point in our dataset. This of course makes little sense. In order to calculate the convex hull per animal, we need to convert our point- to multipoint-features where each feature contains all positions of one animal. This is achieved in two steps:

First: add a grouping variable to the sf object. Note the new grouping variable in the metadata of the sf object. Other than that, group_by has no effect on our sf object.

wildschwein_BE_grouped <- group_by(wildschwein_BE,TierID)

wildschwein_BE_grouped
## Simple feature collection with 51246 features and 4 fields
## geometry type:  POINT
## dimension:      XY
## bbox:           xmin: 2568153 ymin: 1202306 xmax: 2575154 ymax: 1207609
## projected CRS:  CH1903+ / LV95
## # A tibble: 51,246 x 5
## # Groups:   TierID [3]
##    TierID TierName CollarID DatetimeUTC                  geometry
##    <chr>  <chr>       <dbl> <dttm>                    <POINT [m]>
##  1 002A   Sabi        12275 2014-08-22 21:00:12 (2570409 1204752)
##  2 002A   Sabi        12275 2014-08-22 21:15:16 (2570402 1204863)
##  3 002A   Sabi        12275 2014-08-22 21:30:43 (2570394 1204826)
##  4 002A   Sabi        12275 2014-08-22 21:46:07 (2570379 1204817)
##  5 002A   Sabi        12275 2014-08-22 22:00:22 (2570390 1204818)
##  6 002A   Sabi        12275 2014-08-22 22:15:10 (2570390 1204825)
##  7 002A   Sabi        12275 2014-08-22 22:30:13 (2570387 1204831)
##  8 002A   Sabi        12275 2014-08-22 22:45:11 (2570381 1204840)
##  9 002A   Sabi        12275 2014-08-22 23:00:27 (2570316 1204935)
## 10 002A   Sabi        12275 2014-08-22 23:15:41 (2570393 1204815)
## # ... with 51,236 more rows
…
