Tasks and Inputs | Computational Movement Analysis: Patterns and Trends in Environmental Data
…
## 
## -- Column specification --------------------------------------------------------
## cols(
##   TierID = col_character(),
##   TierName = col_character(),
##   CollarID = col_double(),
##   DatetimeUTC = col_datetime(format = ""),
##   E = col_double(),
##   N = col_double()
## )

caro[seq(1, nrow(caro),3), ]

## # A tibble: 67 x 6
##    TierID TierName CollarID DatetimeUTC                E        N
##    <chr>  <chr>       <dbl> <dttm>                 <dbl>    <dbl>
##  1 010C   Caro        13973 2015-09-15 08:07:00 2570589. 1205095.
##  2 010C   Caro        13973 2015-09-15 08:10:00 2570518. 1205115.
##  3 010C   Caro        13973 2015-09-15 08:13:00 2570482. 1205124.
##  4 010C   Caro        13973 2015-09-15 08:16:00 2570490. 1205100.
##  5 010C   Caro        13973 2015-09-15 08:19:00 2570497. 1205092.
##  6 010C   Caro        13973 2015-09-15 08:22:00 2570499. 1205091.
##  7 010C   Caro        13973 2015-09-15 08:25:00 2570500. 1205087.
##  8 010C   Caro        13973 2015-09-15 08:28:00 2570496. 1205094.
##  9 010C   Caro        13973 2015-09-15 08:31:00 2570497. 1205091.
## 10 010C   Caro        13973 2015-09-15 08:34:00 2570499. 1205091.
## # ... with 57 more rows
…
## 
## -- Column specification --------------------------------------------------------
## cols(
##   TierID = col_character(),
##   TierName = col_character(),
##   CollarID = col_double(),
##   DatetimeUTC = col_datetime(format = ""),
##   E = col_double(),
##   N = col_double()
## )

caro[seq(1, nrow(caro),3), ]

## # A tibble: 67 x 6
##    TierID TierName CollarID DatetimeUTC                E        N
##    <chr>  <chr>       <dbl> <dttm>                 <dbl>    <dbl>
##  1 010C   Caro        13973 2015-09-15 08:07:00 2570589. 1205095.
##  2 010C   Caro        13973 2015-09-15 08:10:00 2570518. 1205115.
##  3 010C   Caro        13973 2015-09-15 08:13:00 2570482. 1205124.
##  4 010C   Caro        13973 2015-09-15 08:16:00 2570490. 1205100.
##  5 010C   Caro        13973 2015-09-15 08:19:00 2570497. 1205092.
##  6 010C   Caro        13973 2015-09-15 08:22:00 2570499. 1205091.
##  7 010C   Caro        13973 2015-09-15 08:25:00 2570500. 1205087.
##  8 010C   Caro        13973 2015-09-15 08:28:00 2570496. 1205094.
##  9 010C   Caro        13973 2015-09-15 08:31:00 2570497. 1205091.
## 10 010C   Caro        13973 2015-09-15 08:34:00 2570499. 1205091.
## # ... with 57 more rows
…
