Tasks and inputs | Computational Movement Analysis: Patterns and Trends in Environmental Data
…
euclid2 <- function(x1,y1,x2,y2){
  sqrt((x1-x2)^2+(y2-y2)^2)
}

wildschwein_join <- wildschwein_join %>%
  mutate(
    distance = euclid2(E.x,N.x,E.y,N.y),
    meet = distance < 100
  )

wildschwein_join

## # A tibble: 1,344 x 12
##    TierID.x DatetimeRound            E.x     N.x TierID.y     E.y     N.y TierID
##    <chr>    <dttm>                 <dbl>   <dbl> <chr>      <dbl>   <dbl> <chr> 
##  1 002A     2015-03-31 22:00:00 2570296.  1.21e6 016A      2.57e6  1.20e6 018A  
##  2 002A     2015-03-31 22:15:00 2570259.  1.21e6 016A      2.57e6  1.20e6 018A  
##  3 002A     2015-03-31 22:30:00 2570255.  1.21e6 016A      2.57e6  1.20e6 018A  
##  4 002A     2015-03-31 22:45:00 2570245.  1.21e6 016A      2.57e6  1.20e6 018A  
##  5 002A     2015-03-31 23:00:00 2570364.  1.21e6 016A      2.57e6  1.20e6 018A  
##  6 002A     2015-03-31 23:15:00 2570375.  1.21e6 016A      2.57e6  1.20e6 018A  
##  7 002A     2015-03-31 23:30:00 2570411.  1.21e6 016A      2.57e6  1.20e6 018A  
##  8 002A     2015-03-31 23:45:00 2570429.  1.21e6 016A      2.57e6  1.20e6 018A  
##  9 002A     2015-04-01 00:00:00 2570372.  1.21e6 016A      2.57e6  1.20e6 018A  
## 10 002A     2015-04-01 00:15:00 2570309.  1.21e6 016A      2.57e6  1.20e6 018A  
## # ... with 1,334 more rows, and 4 more variables: E <dbl>, N <dbl>,
## #   distance <dbl>, meet <lgl>
…
